{
  "project_info": {
    "project_number": "719656571884",
    "project_id": "goserve-3187a",
    "storage_bucket": "goserve-3187a.appspot.com"
  },
  "client": [
    {
      "client_info": {
        "mobilesdk_app_id": "1:719656571884:android:ee3ab97931a0966bcda6c9",
        "android_client_info": {
          "package_name": "com.goserve"
        }
      },
      "oauth_client": [
        {
          "client_id": "719656571884-6nescuufr3b0rd2t5n2cmn6tcqb095ea.apps.googleusercontent.com",
          "client_type": 1,
          "android_info": {
            "package_name": "com.goserve",
            "certificate_hash": "0e3b584fa6c4a05ffd295d3cfa27f13918f3bef1"
          }
        },
        {
          "client_id": "719656571884-g3ifd6tqna6m9mfqkchnrahblv0bhdmg.apps.googleusercontent.com",
          "client_type": 1,
          "android_info": {
            "package_name": "com.goserve",
            "certificate_hash": "b3591c6e88ef9a95baf2ca83ca20363526e6bc85"
          }
        },
        {
          "client_id": "719656571884-b69anh0e30t271j038ipev100bl5k9b5.apps.googleusercontent.com",
          "client_type": 3
        }
      ],
      "api_key": [
        {
          "current_key": "AIzaSyAxkmegFKu9shKi8wMuAGDp3m6_TCRTwoM"
        }
      ],
      "services": {
        "appinvite_service": {
          "other_platform_oauth_client": [
            {
              "client_id": "719656571884-b69anh0e30t271j038ipev100bl5k9b5.apps.googleusercontent.com",
              "client_type": 3
            }
          ]
        }
      }
    }
  ],
  "configuration_version": "1"
}